<svg width="48" height="38" viewBox="0 0 48 38" fill="none" xmlns="http://www.w3.org/2000/svg">
<g clip-path="url(#clip0)">
<path d="M38.9531 37.9999H1.60313C0.721875 37.9999 0 37.2759 0 36.3919V14.8671C0 13.9737 0.721875 13.259 1.60313 13.259H31.0312V16.4751H3.20625V34.7745H37.35V18.8354H40.5563V36.3919C40.5656 37.2759 39.8438 37.9999 38.9531 37.9999Z" fill="#FF5722"/>
<path d="M3.58125 21.4121H1.875V18.1961H3.59063C4.35938 18.1961 4.97813 17.5661 4.97813 16.8044V15.0835H8.18438V16.8044C8.18438 19.3433 6.12188 21.4121 3.58125 21.4121Z" fill="#FF5722"/>
<path d="M8.18438 36.1756H4.97812V34.4547C4.97812 33.6836 4.35 33.063 3.59062 33.063H1.875V29.8469H3.59062C6.13125 29.8469 8.19375 31.9157 8.19375 34.4641V36.1756H8.18438Z" fill="#FF5722"/>
<path d="M35.634 36.1757H32.4277V34.4548C32.4277 31.9064 34.4902 29.8376 37.0309 29.8376H38.7465V33.0537H37.0309C36.2621 33.0537 35.6434 33.6837 35.6434 34.4454V36.1757H35.634Z" fill="#FF5722"/>
<path d="M20.5223 33.1855C18.4973 33.1855 16.6035 32.405 15.1879 30.985C13.7723 29.5651 12.9941 27.6655 12.9941 25.6344C12.9941 23.6032 13.7723 21.7036 15.1879 20.2837C16.6035 18.8638 18.4973 18.0833 20.5223 18.0833C22.5473 18.0833 24.441 18.8638 25.8566 20.2837L23.5879 22.5594C22.7816 21.7507 21.6848 21.2993 20.5223 21.2993C19.3598 21.2993 18.2629 21.7507 17.4566 22.5594C16.6504 23.3681 16.2004 24.4683 16.2004 25.6344C16.2004 26.8004 16.6504 27.9006 17.4566 28.7093C18.2629 29.518 19.3598 29.9694 20.5223 29.9694C21.6848 29.9694 22.7816 29.518 23.5879 28.7093C24.1504 28.1451 24.5066 27.5057 24.7223 26.697C24.741 26.6311 24.7691 26.4901 24.7785 26.4431L27.9848 26.4619C27.9848 26.8756 27.891 27.233 27.8254 27.4963C27.4598 28.8786 26.8223 30.007 25.8473 30.9756C24.441 32.405 22.5473 33.1855 20.5223 33.1855Z" fill="#FF5722"/>
<path d="M27.4204 28.239C26.0798 28.239 24.7485 27.6654 23.7735 26.5558C22.1235 24.7409 22.1423 21.9386 23.8485 20.0579L31.5735 11.8297C32.1829 11.1809 33.1954 11.1527 33.8423 11.7639C34.4891 12.3751 34.5173 13.3907 33.9079 14.0396L26.2016 22.2489C25.6391 22.8696 25.611 23.8005 26.1641 24.4118C26.7548 25.0888 27.6829 25.2017 28.3391 24.7033L44.3891 12.7419L40.1985 3.4323L26.5766 6.0277L18.9173 15.8545C18.3735 16.5597 17.361 16.682 16.6673 16.1366C15.9641 15.5912 15.8423 14.5756 16.386 13.8797L24.4204 3.57336C24.6641 3.26304 25.0016 3.05616 25.386 2.98093L40.8548 0.0281961C41.586 -0.112858 42.3173 0.27269 42.6173 0.94975L47.8579 12.6008C48.1673 13.2873 47.961 14.1054 47.3516 14.5568L30.2798 27.2705C29.4266 27.9193 28.4235 28.239 27.4204 28.239Z" fill="#FF5722"/>
</g>
<defs>
<clipPath id="clip0">
<rect width="48" height="38" fill="white"/>
</clipPath>
</defs>
</svg>
