<svg width="32" height="38" viewBox="0 0 32 38" fill="none" xmlns="http://www.w3.org/2000/svg">
<path d="M24.3644 8.01562H13.6575C12.8275 8.01562 12.1484 8.68359 12.1484 9.5C12.1484 10.3164 12.8275 10.9844 13.6575 10.9844H24.3644C25.1944 10.9844 25.8735 10.3164 25.8735 9.5C25.8735 8.68359 25.202 8.01562 24.3644 8.01562Z" fill="#FF5722"/>
<path d="M25.8735 15.4375C25.8735 14.6211 25.1944 13.9531 24.3644 13.9531H13.6575C12.8275 13.9531 12.1484 14.6211 12.1484 15.4375C12.1484 16.2539 12.8275 16.9219 13.6575 16.9219H24.3644C25.202 16.9219 25.8735 16.2613 25.8735 15.4375Z" fill="#FF5722"/>
<path d="M13.6575 19.8906C12.8275 19.8906 12.1484 20.5586 12.1484 21.375C12.1484 22.1914 12.8275 22.8594 13.6575 22.8594H18.2602C19.0902 22.8594 19.7693 22.1914 19.7693 21.375C19.7693 20.5586 19.0902 19.8906 18.2602 19.8906H13.6575Z" fill="#FF5722"/>
<path d="M30.4909 20.1875C31.3209 20.1875 32 19.5195 32 18.7031V5.9375C32 2.66445 29.2912 0 25.9637 0H12.0726C8.74511 0 6.03631 2.66445 6.03631 5.93008C2.7088 5.93008 0 8.59453 0 11.8676V32.0551C0 35.3281 2.7088 37.9926 6.03631 37.9926H20.6744C24.0019 37.9926 26.7107 35.3281 26.7107 32.0551V32.0105C29.6836 31.6469 31.9925 29.1383 31.9925 26.1176C31.9925 25.3012 31.3134 24.6332 30.4834 24.6332C29.6534 24.6332 28.9743 25.3012 28.9743 26.1176C28.9743 27.7578 27.6237 29.0863 25.9561 29.0863H12.0726C11.2653 29.0863 10.5107 28.7746 9.93728 28.218C9.36383 27.6539 9.05447 26.9117 9.05447 26.1176V5.9375C9.05447 4.29727 10.4051 2.96875 12.0726 2.96875H25.9561C27.6237 2.96875 28.9743 4.29727 28.9743 5.9375V18.7031C28.9818 19.527 29.6534 20.1875 30.4909 20.1875ZM12.0726 32.0625H23.6925C23.6925 33.6953 22.3344 35.0312 20.6744 35.0312H6.03631C4.37633 35.0312 3.01816 33.6953 3.01816 32.0625V11.875C3.01816 10.2348 4.36878 8.90625 6.03631 8.90625V26.125C6.03631 27.7133 6.66258 29.2051 7.80193 30.3258C8.94883 31.4465 10.4655 32.0625 12.0726 32.0625Z" fill="#FF5722"/>
</svg>
