<svg width="36" height="36" viewBox="0 0 36 36" fill="none" xmlns="http://www.w3.org/2000/svg">
<path d="M30.0019 6.3552V2.99904C29.9981 1.344 28.6579 0.00384 26.999 0H2.99904C1.344 0.00384 0.00384 1.344 0 2.99904V16.1971C0.00384 17.7293 1.16736 19.0118 2.69184 19.1654L4.94592 25.0214C5.54112 26.569 7.2768 27.337 8.82432 26.7418L22.9094 21.3158C21.9379 23.8579 22.2144 26.711 23.6582 29.0189L24.0038 29.5718V35.401C24.0038 35.7312 24.2726 36 24.6029 36H35.4048C35.735 36 36.0038 35.7312 36.0038 35.401V15.5942C36 13.5206 35.1705 11.5315 33.7037 10.0646L30.0019 6.3552ZM30.0019 9.9456L31.8221 14.6726C32.1792 15.6019 31.7145 16.6426 30.7891 16.9997L29.7485 17.4029C29.9136 17.0227 30.0019 16.6157 30.0019 16.201V9.9456ZM1.20192 16.201V2.99904C1.20192 2.00448 2.00832 1.19808 3.00288 1.19808H27.0029C27.9974 1.19808 28.8038 2.00448 28.8038 2.99904V6.81216H28.8L28.8038 6.82752V16.201C28.8 16.3046 28.7846 16.4083 28.7616 16.512L23.2627 11.0131C22.0262 9.80736 20.0563 9.79584 18.8122 10.9901C17.5642 12.1843 17.4912 14.1542 18.6432 15.4368L20.9856 17.9942H2.99904C2.00448 18.0019 1.20192 17.1955 1.20192 16.201ZM8.88576 19.2L4.61952 20.8435L3.98976 19.2H8.88576ZM8.3904 25.6243C7.46112 25.9814 6.42048 25.5206 6.06336 24.5914L5.0496 21.961L12.215 19.2V19.1962H22.0838L22.8634 20.0448L8.3904 25.6243ZM34.8019 34.8019H25.2019V30.0019H34.8019V34.8019ZM34.8019 28.8H24.9331L24.672 28.3853C23.209 26.0467 23.1514 23.0938 24.5184 20.7014C24.6489 20.4749 24.6144 20.1907 24.4416 19.9987L19.5264 14.6342C18.793 13.8317 18.8352 12.5914 19.6186 11.8387C20.4019 11.0861 21.6461 11.0976 22.4141 11.8656L31.9757 21.4234L32.8243 20.5747L30.6048 18.3552L31.2192 18.1133C32.7629 17.5181 33.5347 15.7824 32.9395 14.2387L30.9081 8.9664L32.8512 10.9133C34.0915 12.1536 34.7942 13.8394 34.7981 15.5942V28.8H34.8019Z" fill="#FF5722"/>
<path d="M6.83943 8.40189C7.69959 8.40189 8.39847 7.70301 8.39847 6.84285V3.96285C8.39847 3.10269 7.69959 2.40381 6.83943 2.40381H3.95943C3.09927 2.40381 2.40039 3.10269 2.40039 3.96285V6.84285C2.40039 7.70301 3.09927 8.40189 3.95943 8.40189H6.83943ZM3.60231 6.83901V5.99805H4.80039V4.79997H3.60231V3.95901C3.60231 3.75933 3.76359 3.59805 3.96327 3.59805H6.84327C7.04295 3.59805 7.20423 3.75933 7.20423 3.95901V4.79997H6.00231V6.00189H7.20423V6.84285C7.20423 7.04253 7.04295 7.20381 6.84327 7.20381H3.96327C3.75975 7.19997 3.60231 7.03869 3.60231 6.83901Z" fill="#FF5722"/>
<path d="M5.4 10.1992H3V11.4011H5.4V10.1992Z" fill="#FF5722"/>
<path d="M5.4 13.8013H3V15.0032H5.4V13.8013Z" fill="#FF5722"/>
<path d="M16.2008 13.8013H13.8008V15.0032H16.2008V13.8013Z" fill="#FF5722"/>
<path d="M9.00156 10.1992H6.60156V11.4011H9.00156V10.1992Z" fill="#FF5722"/>
<path d="M12.5992 10.1992H10.1992V11.4011H12.5992V10.1992Z" fill="#FF5722"/>
<path d="M16.2008 10.1992H13.8008V11.4011H16.2008V10.1992Z" fill="#FF5722"/>
<path d="M26.4031 2.99902H25.2012V4.79998H26.4031V2.99902Z" fill="#FF5722"/>
<path d="M24.0047 2.99902H22.8027V4.79998H24.0047V2.99902Z" fill="#FF5722"/>
<path d="M21.6043 2.99902H20.4023V4.79998H21.6043V2.99902Z" fill="#FF5722"/>
<path d="M19.2039 2.99902H18.002V4.79998H19.2039V2.99902Z" fill="#FF5722"/>
<path d="M27.6023 31.1997H26.4004V32.4016H27.6023V31.1997Z" fill="#FF5722"/>
</svg>
