<svg width="44" height="34" viewBox="0 0 44 34" fill="none" xmlns="http://www.w3.org/2000/svg">
<path d="M37.125 26.842C36.1797 26.842 35.4062 27.6473 35.4062 28.6315C35.4062 29.6157 36.1797 30.421 37.125 30.421C38.0703 30.421 38.8438 29.6157 38.8438 28.6315C38.8438 27.6473 38.0703 26.842 37.125 26.842Z" fill="#FF5722"/>
<path d="M36.2656 19.6842C35.793 19.6842 35.4062 20.0868 35.4062 20.5789C35.4062 21.071 35.793 21.4737 36.2656 21.4737C36.7383 21.4737 37.125 21.071 37.125 20.5789C37.125 20.0868 36.7383 19.6842 36.2656 19.6842Z" fill="#FF5722"/>
<path d="M10.8281 26.842C9.88281 26.842 9.10938 27.6473 9.10938 28.6315C9.10938 29.6157 9.88281 30.421 10.8281 30.421C11.7734 30.421 12.5469 29.6157 12.5469 28.6315C12.5469 27.6473 11.7734 26.842 10.8281 26.842Z" fill="#FF5722"/>
<path d="M40.3906 16.1612L38.9082 9.9875C39.4346 9.46184 39.7031 8.76842 39.7031 8.05263C39.7031 6.57632 38.543 5.36842 37.125 5.36842H30.25V2.68421C30.25 1.20789 29.0898 0 27.6719 0H2.57812C1.16016 0 0 1.20789 0 2.68421V25.9474C0 27.4237 1.16016 28.6316 2.57812 28.6316H5.67188C5.67188 31.5954 7.98145 34 10.8281 34C13.6748 34 15.9844 31.5954 15.9844 28.6316H31.9688C31.9688 31.5954 34.2783 34 37.125 34C39.9717 34 42.2812 31.5954 42.2812 28.6316C42.2812 28.5757 42.2812 28.5309 42.2812 28.475C43.2803 28.1059 44 27.1105 44 25.9474V20.5789C44 18.3533 42.4316 16.5079 40.3906 16.1612ZM37.3184 10.7368L38.6074 16.1053H31.4746L33.4404 14.0586C33.7734 13.7118 33.7734 13.1414 33.4404 12.7947C33.1074 12.448 32.5596 12.448 32.2266 12.7947L30.2607 14.8414V10.7368H37.3184ZM37.9844 8.05263C37.9844 8.54474 37.5977 8.94737 37.125 8.94737H30.25V7.15789H37.125C37.5977 7.15789 37.9844 7.56053 37.9844 8.05263ZM10.8281 32.2105C8.9375 32.2105 7.39063 30.6 7.39063 28.6316C7.39063 26.6296 8.95898 25.0526 10.8281 25.0526C12.6973 25.0526 14.2656 26.6408 14.2656 28.6316C14.2656 30.6 12.7188 32.2105 10.8281 32.2105ZM15.6943 26.8421C14.9746 24.7283 13.0303 23.2632 10.8281 23.2632C8.62598 23.2632 6.68164 24.7283 5.96191 26.8421H2.57812C2.10547 26.8421 1.71875 26.4395 1.71875 25.9474V2.68421C1.71875 2.19211 2.10547 1.78947 2.57812 1.78947H27.6719C28.1445 1.78947 28.5312 2.19211 28.5312 2.68421V26.8421H15.6943ZM37.125 32.2105C35.2344 32.2105 33.6875 30.6 33.6875 28.6316C33.6875 26.6296 35.2559 25.0526 37.125 25.0526C38.9941 25.0526 40.5625 26.6408 40.5625 28.6316C40.5625 30.6 39.0156 32.2105 37.125 32.2105ZM41.9268 26.6743C41.1641 24.65 39.2627 23.2632 37.125 23.2632C34.9229 23.2632 32.9785 24.7283 32.2588 26.8421H30.25V17.8947H39.7031C40.8203 17.8947 41.7764 18.6441 42.1309 19.6842H39.7031C39.2305 19.6842 38.8438 20.0868 38.8438 20.5789C38.8438 21.0711 39.2305 21.4737 39.7031 21.4737H42.2812V25.9474C42.2812 26.2493 42.1416 26.5066 41.9268 26.6743Z" fill="#FF5722"/>
<path d="M15.125 5.36841C10.8604 5.36841 7.39062 8.98091 7.39062 13.421C7.39062 17.8612 10.8604 21.4737 15.125 21.4737C19.3896 21.4737 22.8594 17.8612 22.8594 13.421C22.8594 8.98091 19.3896 5.36841 15.125 5.36841ZM15.125 19.6842C11.8057 19.6842 9.10938 16.877 9.10938 13.421C9.10938 9.96512 11.8057 7.15788 15.125 7.15788C18.4443 7.15788 21.1406 9.96512 21.1406 13.421C21.1406 16.877 18.4443 19.6842 15.125 19.6842Z" fill="#FF5722"/>
<path d="M18.5625 12.5263H15.9844V9.84212C15.9844 9.35002 15.5977 8.94739 15.125 8.94739C14.6523 8.94739 14.2656 9.35002 14.2656 9.84212V13.4211C14.2656 13.9132 14.6523 14.3158 15.125 14.3158H18.5625C19.0352 14.3158 19.4219 13.9132 19.4219 13.4211C19.4219 12.929 19.0352 12.5263 18.5625 12.5263Z" fill="#FF5722"/>
</svg>
