<svg width="190" height="31" viewBox="0 0 190 31" fill="none" xmlns="http://www.w3.org/2000/svg">
<path d="M84.9549 8.86588L88.9156 5.97656H75.6558V23.2842H88.9156V20.3948H79.4443V15.9759H87.5379V13.0866H79.4443V8.86588H84.9549Z" fill="#21A038"/>
<path d="M65.6395 12.7183H61.0473V8.86588H68.3948L72.3555 5.97656H57.2588V23.2842H65.1515C69.5715 23.2842 72.1259 21.3013 72.1259 17.8454C72.1259 14.5312 69.8298 12.7183 65.6395 12.7183ZM65.008 20.3948H61.0473V15.6076H65.008C67.4189 15.6076 68.5383 16.4008 68.5383 18.0154C68.5383 19.63 67.3328 20.3948 65.008 20.3948Z" fill="#21A038"/>
<path d="M99.6502 5.97656H92.4463V23.2842H96.2348V18.3836H99.6789C104.271 18.3836 107.141 16.0042 107.141 12.1801C107.141 8.356 104.271 5.97656 99.6502 5.97656ZM99.5641 15.4943H96.2061V8.86588H99.5641C102.004 8.86588 103.324 10.0556 103.324 12.1801C103.324 14.3046 102.004 15.4943 99.5641 15.4943Z" fill="#21A038"/>
<path d="M50.7725 19.5461C49.7679 20.0843 48.6486 20.3675 47.5006 20.3675C44.0851 20.3675 41.6169 17.9598 41.6169 14.6456C41.6169 11.3313 44.0851 8.92356 47.5006 8.92356C48.7347 8.89524 49.9401 9.29181 50.9447 9.99998L53.6712 8.01711L53.499 7.84715C51.9205 6.45914 49.7966 5.75098 47.3858 5.75098C44.774 5.75098 42.3918 6.6291 40.6697 8.2154C38.9477 9.85834 37.9719 12.1528 38.0293 14.5322C38.0006 16.94 38.9477 19.2628 40.6697 20.9624C42.4779 22.6337 44.8888 23.5685 47.357 23.5118C50.0836 23.5118 52.4658 22.577 54.0731 20.8774L51.6335 19.0928L50.7725 19.5461Z" fill="#21A038"/>
<path d="M152.689 6.00489V23.3125H156.477V16.2308H164.542V23.3125H168.331V6.00489H164.542V13.1149H156.477V6.00489H152.689ZM146.174 23.3125H150.163L142.758 6.00489H138.912L131.364 23.3125H135.181L136.703 19.8283H144.739L146.174 23.3125ZM137.851 16.939L140.778 9.99895L143.533 16.939H137.851ZM176.826 16.3158H179.18L184.977 23.2842H189.857L182.107 14.3329L188.881 5.97656H184.547L178.922 13.3982H176.826V5.97656H173.038V23.2842H176.826V16.3158ZM118.851 12.7466V8.89421H128.752V6.00489H115.062V23.3125H122.955C127.375 23.3125 129.929 21.3296 129.929 17.8738C129.929 14.5595 127.633 12.7466 123.443 12.7466H118.851ZM118.851 20.4232V15.636H122.811C125.222 15.636 126.341 16.4291 126.341 18.0437C126.341 19.6583 125.165 20.4515 122.811 20.4515H118.851V20.4232Z" fill="#21A038"/>
<path d="M26.1757 5.86328C26.8645 6.74141 27.4385 7.70451 27.9264 8.72427L14.6666 18.3837L9.09863 14.9278V10.7921L14.6379 14.2196L26.1757 5.86328Z" fill="#21A038"/>
<path d="M3.44443 14.6447C3.44443 14.4464 3.44443 14.2765 3.47313 14.0782L0.115127 13.9082C0.115127 14.1348 0.0864258 14.3898 0.0864258 14.6164C0.0864258 18.5821 1.72238 22.1796 4.36286 24.7856L6.74504 22.4345C4.70727 20.4517 3.44443 17.704 3.44443 14.6447Z" fill="url(#paint0_linear)"/>
<path d="M14.6377 3.59742C14.8386 3.59742 15.0108 3.59742 15.2117 3.62575L15.3839 0.31153C15.1543 0.31153 14.896 0.283203 14.6664 0.283203C10.6483 0.283203 7.00328 1.89782 4.36279 4.50388L6.74497 6.85499C8.75403 4.8438 11.5667 3.59742 14.6377 3.59742Z" fill="url(#paint1_linear)"/>
<path d="M14.6378 25.6912C14.4369 25.6912 14.2647 25.6912 14.0638 25.6628L13.8916 28.9771C14.1212 28.9771 14.3795 29.0054 14.6091 29.0054C18.6273 29.0054 22.2723 27.3908 24.9128 24.7847L22.5306 22.4336C20.5215 24.4731 17.7375 25.6912 14.6378 25.6912Z" fill="url(#paint2_linear)"/>
<path d="M20.9519 5.52364L23.7933 3.4558C21.2963 1.47293 18.1105 0.254883 14.6377 0.254883V3.5691C16.9912 3.59743 19.1724 4.3056 20.9519 5.52364Z" fill="url(#paint3_linear)"/>
<path d="M29.2181 14.6441C29.2181 13.766 29.132 12.9162 28.9885 12.0664L25.8601 14.3609C25.8601 14.4458 25.8601 14.5592 25.8601 14.6441C25.8601 17.9017 24.4251 20.8193 22.1577 22.8305L24.4251 25.295C27.3526 22.6889 29.2181 18.8648 29.2181 14.6441Z" fill="#21A038"/>
<path d="M14.6382 25.6932C11.3376 25.6932 8.38142 24.2769 6.34366 22.0391L3.84668 24.2769C6.51586 27.1945 10.3618 29.0074 14.6382 29.0074V25.6932Z" fill="url(#paint4_linear)"/>
<path d="M7.14685 6.45758L4.87948 3.99316C1.92328 6.62754 0.0864258 10.4233 0.0864258 14.644H3.44443C3.44443 11.4148 4.87948 8.46878 7.14685 6.45758Z" fill="url(#paint5_linear)"/>
<defs>
<linearGradient id="paint0_linear" x1="4.0155" y1="24.3824" x2="0.658181" y2="14.5811" gradientUnits="userSpaceOnUse">
<stop offset="0.1444" stop-color="#F2E913"/>
<stop offset="0.3037" stop-color="#E7E518"/>
<stop offset="0.5823" stop-color="#CADB26"/>
<stop offset="0.891" stop-color="#A3CD39"/>
</linearGradient>
<linearGradient id="paint1_linear" x1="5.32" y1="4.11963" x2="14.003" y2="0.777697" gradientUnits="userSpaceOnUse">
<stop offset="0.0592" stop-color="#0FA8E0"/>
<stop offset="0.5385" stop-color="#0099F9"/>
<stop offset="0.9234" stop-color="#0291EB"/>
</linearGradient>
<linearGradient id="paint2_linear" x1="13.6944" y1="26.1783" x2="24.0621" y2="23.8117" gradientUnits="userSpaceOnUse">
<stop offset="0.1226" stop-color="#A3CD39"/>
<stop offset="0.2846" stop-color="#86C339"/>
<stop offset="0.8693" stop-color="#21A038"/>
</linearGradient>
<linearGradient id="paint3_linear" x1="13.9478" y1="2.37538" x2="22.5621" y2="5.05977" gradientUnits="userSpaceOnUse">
<stop offset="0.0566" stop-color="#0291EB"/>
<stop offset="0.79" stop-color="#0C8ACB"/>
</linearGradient>
<linearGradient id="paint4_linear" x1="4.7005" y1="24.8152" x2="13.943" y2="28.3029" gradientUnits="userSpaceOnUse">
<stop offset="0.1324" stop-color="#F2E913"/>
<stop offset="0.2977" stop-color="#EBE716"/>
<stop offset="0.5306" stop-color="#D9E01F"/>
<stop offset="0.8023" stop-color="#BBD62D"/>
<stop offset="0.9829" stop-color="#A3CD39"/>
</linearGradient>
<linearGradient id="paint5_linear" x1="2.64155" y1="15.0443" x2="6.27383" y2="5.50123" gradientUnits="userSpaceOnUse">
<stop offset="0.0698" stop-color="#A3CD39"/>
<stop offset="0.2599" stop-color="#81C55F"/>
<stop offset="0.9216" stop-color="#0FA8E0"/>
</linearGradient>
</defs>
</svg>
