<svg width="169" height="52" viewBox="0 0 169 52" fill="none" xmlns="http://www.w3.org/2000/svg">
<path fill-rule="evenodd" clip-rule="evenodd" d="M19.0749 0C23.1211 0 24.3928 2.53615 25.4556 5.07229C25.9072 6.14689 36.4167 31.3301 36.7298 32.0847C36.8181 32.2962 36.7603 32.6413 36.3885 32.7665C36.0162 32.8881 30.5552 34.7494 30.2538 34.8475C29.952 34.9457 29.6121 34.8007 29.5008 34.5378C29.3886 34.2753 27.125 28.7857 26.8696 28.172H11.2986C11.0418 28.7857 8.75467 34.2868 8.64952 34.5378C8.54577 34.7888 8.21669 34.9572 7.89793 34.8475C7.57777 34.7379 2.09184 32.8762 1.76793 32.7665C1.45434 32.6606 1.30975 32.3471 1.42242 32.0847C1.80736 31.1411 12.1572 6.36378 12.6872 5.07229C13.712 2.57681 15.0297 0 19.0749 0ZM0.589624 45.0558C0.26336 45.0558 0 45.2949 0 45.5886V51.4709C0 51.765 0.26383 52 0.589624 52H37.5612C37.8851 52 38.1461 51.765 38.1461 51.4709V45.5886C38.1461 45.2945 37.8851 45.0558 37.5612 45.0558H0.589624ZM19.0444 8.22255L13.7782 22.0559H24.3933L19.1092 8.22255H19.0449H19.0444ZM98.0416 30.9028C97.2675 31.1349 96.7558 31.1912 96.145 31.1912C94.8865 31.1912 94.1861 30.755 94.1861 29.6245C94.1861 28.448 95.0766 28.0516 96.8196 28.0516C97.2398 28.0516 97.6632 28.1063 97.8585 28.1658V29.0075C97.8585 29.9182 97.913 30.5151 98.0416 30.9033V30.9028ZM102.515 32.2568C101.587 31.0179 101.345 30.29 101.345 28.7311V25.573C101.345 23.8674 101.119 23.255 100.602 22.6322C99.8884 21.7532 98.6974 21.3724 96.5009 21.3724C94.9508 21.3724 93.4425 21.5203 91.9848 21.844L92.5059 24.0934C93.495 23.973 94.5287 23.8674 95.2583 23.8674C97.59 23.8674 97.859 24.164 97.859 25.6929V26.2647C97.3407 26.1436 96.7563 26.0561 96.0803 26.0561C92.5726 26.0561 90.7206 27.5571 90.7206 30.041C90.7206 32.3742 92.697 33.644 95.1099 33.644C96.0136 33.644 96.953 33.499 97.697 33.2324C98.1458 33.0598 98.3411 32.9621 98.926 32.6289C99.2725 33.0759 99.9785 33.5343 100.265 33.6164L102.515 32.2568H102.515ZM137.213 30.9028C136.436 31.1349 135.928 31.1912 135.315 31.1912C134.055 31.1912 133.342 30.755 133.342 29.6245C133.342 28.448 134.244 28.0516 135.991 28.0516C136.412 28.0516 136.833 28.1063 137.025 28.1658V29.0075C137.024 29.9182 137.082 30.5151 137.213 30.9033L137.213 30.9028ZM141.686 32.2568C140.754 31.0179 140.514 30.29 140.514 28.7311V25.573C140.514 23.8674 140.287 23.255 139.769 22.6322C139.056 21.7532 137.866 21.3724 135.668 21.3724C134.115 21.3724 132.594 21.5203 131.14 21.844L131.659 24.0934C132.647 23.973 133.685 23.8674 134.43 23.8674C136.754 23.8674 137.024 24.164 137.024 25.6929V26.2647C136.509 26.1436 135.928 26.0561 135.247 26.0561C131.728 26.0561 129.874 27.5571 129.874 30.041C129.874 32.3742 131.853 33.644 134.279 33.644C135.182 33.644 136.122 33.499 136.864 33.2324C137.317 33.0598 137.51 32.9621 138.091 32.6289C138.442 33.0759 139.149 33.5343 139.434 33.6164L141.687 32.2568H141.686ZM169 33.3815C169 33.3815 167.079 29.7925 166.611 28.9796C166.079 28.0586 165.59 27.4227 164.506 27.1993V27.1438C165.231 27.0235 165.81 26.6377 166.432 25.4654C167.039 24.3205 167.214 24.0741 167.564 23.8042C167.912 23.5298 168.384 23.6321 168.384 23.6321L168.564 21.5137C168.059 21.4558 167.5 21.4541 166.924 21.4833C165.972 21.533 165.477 21.77 165.008 22.1861C164.644 22.5033 164.393 22.9761 164.086 23.5179L163.16 25.1926C162.824 25.8092 162.658 26.0861 161.746 26.0861H161.156V16.7215H157.636V33.3815H161.156V28.5906L161.633 28.5815C162.642 28.5815 162.816 28.7997 163.348 29.7288C163.974 30.8388 165.164 33.3811 165.164 33.3811H169V33.3815ZM70.0641 33.3815H74.1187L67.9896 17.0025C67.3465 16.8123 66.5437 16.6936 65.6917 16.6936C64.7613 16.6936 64.4308 16.8021 63.7008 17.0025L57.2182 33.3815H61.1052C61.1052 33.3815 61.6282 31.9433 62.2497 30.1606H68.9694C69.5717 31.9433 70.0641 33.3815 70.0641 33.3815ZM63.2375 27.4141C63.2375 27.4141 64.3557 24.1291 64.5284 23.6148C64.9814 22.2921 65.6574 20.1877 65.6574 20.1877H65.7701C65.7701 20.1877 66.3935 22.3689 66.8043 23.5951L68.0328 27.4141H63.2375ZM108.5 25.5442C107.259 25.5442 106.253 26.4278 106.253 27.5139C106.253 28.6045 107.259 29.4815 108.5 29.4815C109.74 29.4815 110.744 28.6045 110.744 27.5139C110.744 26.4278 109.739 25.5442 108.5 25.5442ZM78.9319 16.7215H75.412V33.3815H78.9319V16.7215ZM148.891 24.019C150.833 24.0576 151.072 24.4068 151.072 25.8375V33.3815H154.56V25.5726C154.56 23.867 154.335 23.2546 153.817 22.6318C153.104 21.7528 151.693 21.372 149.314 21.372C146.961 21.372 145.463 21.5909 143.531 22.0937V33.3815H147.055V24.164C147.985 24.0465 148.143 24.019 148.891 24.019ZM87.6373 16.4258C85.4412 16.4258 84.247 16.8045 83.5343 17.6836C83.0175 18.3059 82.7907 18.9348 82.7907 20.6416V22.0937H81.0416V24.5838H82.7907V33.3815H86.2778L86.2698 24.5838H89.7531V22.0937H86.2698L86.2778 20.7587C86.2778 19.2318 86.5482 18.9356 88.879 18.9356C89.1292 18.9356 89.4123 18.9476 89.716 18.9677L90.2662 16.5761C89.4033 16.4743 88.5231 16.4262 87.6368 16.4262L87.6373 16.4258ZM115.656 16.5794C116.854 16.5186 119.528 16.4311 121.212 16.4311C121.511 16.4311 121.826 16.4336 122.148 16.4459C125.456 16.4459 127.347 18.5528 127.347 21.0224C127.347 22.7021 126.468 23.8169 124.408 24.4828C126.836 24.9523 128.107 26.6102 128.107 28.6349C128.107 30.122 127.622 31.3017 126.739 32.1077C125.601 33.0952 123.876 33.644 121.58 33.644C119.528 33.644 116.963 33.5889 115.655 33.5187V16.5794H115.656H115.656ZM121.213 19.3107C120.623 19.3107 119.909 19.3189 119.192 19.3415V23.3412H121.216C122.01 23.3412 122.656 23.1461 123.097 22.7694C123.512 22.417 123.727 21.915 123.727 21.3194C123.727 20.0427 122.938 19.316 121.469 19.3103H121.213V19.3107ZM121.28 30.7726H121.442C123.262 30.7726 124.392 29.919 124.403 28.2016C124.382 27.5817 124.115 27.0144 123.634 26.6036C123.101 26.1382 122.351 25.8946 121.473 25.8946H119.191V30.7533C119.835 30.7656 120.542 30.7702 121.28 30.773V30.7726Z" fill="#EE3424"/>
</svg>
