<svg width="79" height="167" viewBox="0 0 79 167" fill="none" xmlns="http://www.w3.org/2000/svg">
<g clip-path="url(#clip0)">
<path d="M2.46875 161.389V157.312C2.46875 155.975 3.29167 154.768 4.5425 154.312L39.5 141.754L74.4575 154.312C75.7083 154.768 76.5312 155.942 76.5312 157.312V161.389C76.5312 163.151 75.1488 164.553 73.4371 164.553H5.56292C3.85125 164.553 2.46875 163.151 2.46875 161.389Z" fill="#EFA96B"/>
<path d="M4.5425 154.312H74.4575C75.7083 154.768 76.5312 155.942 76.5312 157.312V161.389C76.5312 163.151 75.1488 164.553 73.4371 164.553H5.56292C3.85125 164.553 2.46875 163.151 2.46875 161.389V157.312C2.46875 155.942 3.29167 154.768 4.5425 154.312Z" fill="#E08658"/>
<path d="M61.3573 40.8367C58.2303 50.6545 56.6173 60.9615 56.6173 71.3012C62.8386 81.282 66.1302 92.8611 66.1302 104.701V116.052C66.1302 118.009 64.5832 119.607 62.674 119.607H16.3273C14.4182 119.607 12.8711 118.009 12.8711 116.052V104.701C12.8711 92.8611 16.1628 81.282 22.384 71.3012C22.384 60.9615 20.7711 50.6871 17.644 40.8367L12.8711 25.8654V19.766C12.8711 17.9721 14.1548 16.4717 15.8994 16.2434L31.8969 14.1559V6.00156C31.8969 4.04453 33.444 2.44629 35.3532 2.44629H43.6482C45.5573 2.44629 47.1044 4.04453 47.1044 6.00156V14.1559L63.1019 16.2434C64.8465 16.4717 66.1302 17.9721 66.1302 19.766V25.8654L61.3573 40.8367Z" fill="#FA8C73"/>
<path d="M61.3565 40.8367C58.2294 50.6545 56.6165 60.9615 56.6165 71.3012C62.8377 81.282 66.1294 92.8611 66.1294 104.701V116.052C66.1294 118.009 64.5823 119.607 62.6731 119.607H56.1556H29.6906C32.0935 118.27 34.3977 116.737 36.5702 115.041C47.9923 106.071 52.6335 90.7736 48.7494 76.5852C47.1694 70.7467 46.3135 63.734 47.729 50.9807C49.3419 36.4008 42.3306 22.1471 29.7565 15.167C29.3944 14.9713 29.0323 14.7756 28.7031 14.5799L31.896 14.1559V6.00156C31.896 4.04453 33.4431 2.44629 35.3523 2.44629H39.2694H43.6473C43.746 2.44629 43.8777 2.44629 43.9765 2.47891C44.0094 2.47891 44.0752 2.47891 44.1081 2.51152C44.174 2.51152 44.2398 2.54414 44.3056 2.54414C44.3715 2.54414 44.4044 2.57676 44.4702 2.57676C44.536 2.57676 44.569 2.60938 44.6348 2.60938C44.7006 2.64199 44.7665 2.64199 44.7994 2.67461C44.8323 2.67461 44.8652 2.70723 44.931 2.70723C44.9969 2.73984 45.0627 2.77246 45.1285 2.80508C45.1615 2.80508 45.1944 2.8377 45.2273 2.8377C45.2931 2.87031 45.359 2.90293 45.4248 2.93555C45.4577 2.93555 45.4577 2.96816 45.4906 2.96816C45.5565 3.00078 45.6223 3.06602 45.6881 3.09863C45.6881 3.09863 45.721 3.09863 45.721 3.13125C46.5769 3.78359 47.1365 4.82734 47.1365 6.00156V14.1559L63.134 16.2434C64.8785 16.4717 66.1623 17.9721 66.1623 19.766V25.8654L61.3565 40.8367Z" fill="#F07462"/>
<path d="M75.3133 152.029L41.9688 140.058V122.054H47.1038C48.4533 122.054 49.5725 120.945 49.5725 119.607C49.5725 118.27 48.4533 117.161 47.1038 117.161H16.3267C15.7671 117.161 15.3392 116.672 15.3392 116.052V104.701C15.3392 93.3178 18.4992 82.1953 24.49 72.6059C24.7204 72.2145 24.8521 71.7904 24.8521 71.3338C24.8521 60.7332 23.2063 50.2305 20.0133 40.1191L15.3392 25.5066V19.766C15.3392 19.2115 15.7013 18.7223 16.2279 18.657L32.2254 16.5695C33.4433 16.4064 34.365 15.3627 34.365 14.1559V6.00156C34.365 5.38184 34.8258 4.89258 35.3525 4.89258H43.6475C44.2071 4.89258 44.635 5.38184 44.635 6.00156V14.1559C44.635 15.3953 45.5567 16.4064 46.7746 16.5695L62.7721 18.657C63.2658 18.7223 63.6608 19.1789 63.6608 19.766V25.5066L59.0196 40.1191C55.7938 50.1979 54.1808 60.7006 54.1808 71.3338C54.1808 71.7904 54.3125 72.2471 54.5429 72.6059C60.5338 82.1953 63.6938 93.3178 63.6938 104.701V116.052C63.6938 116.672 63.2329 117.161 62.7063 117.161H56.09C54.7404 117.161 53.6213 118.27 53.6213 119.607C53.6213 120.945 54.7404 122.054 56.09 122.054H62.7063C65.965 122.054 68.6313 119.379 68.6313 116.052V104.701C68.6313 92.6328 65.3396 80.858 59.1183 70.6488C59.1842 60.7658 60.7313 51.0133 63.7267 41.6195L68.4996 26.6482C68.5654 26.4199 68.5983 26.159 68.5983 25.898V19.766C68.5983 16.7652 66.36 14.1885 63.4304 13.8297L49.5725 12.0357V6.00156C49.5725 2.70723 46.9063 0 43.6475 0H35.3525C32.0938 0 29.4275 2.67461 29.4275 6.00156V12.0357L15.5696 13.8297C12.6071 14.2211 10.4017 16.7652 10.4017 19.766V25.8654C10.4017 26.1264 10.4346 26.3547 10.5004 26.6156L15.2733 41.5869C18.2688 50.9807 19.8158 60.7332 19.8817 70.6162C13.6604 80.858 10.4017 92.6328 10.4017 104.701V116.052C10.4017 119.346 13.0679 122.054 16.3267 122.054H37.0312V140.058L3.7525 151.996C3.71958 151.996 3.65375 152.029 3.62083 152.029C1.44833 152.844 0 154.932 0 157.28V161.357C0 164.456 2.50167 166.967 5.56292 166.967H73.47C76.5312 166.967 79.0329 164.456 79.0329 161.357V157.28C79 154.932 77.5188 152.812 75.3133 152.029ZM74.0625 161.39C74.0625 161.781 73.7992 162.107 73.4371 162.107H5.56292C5.23375 162.107 4.9375 161.781 4.9375 161.39V157.313C4.9375 157.117 5.00333 156.921 5.135 156.758H46.9063C48.2558 156.758 49.375 155.649 49.375 154.312C49.375 152.975 48.2558 151.866 46.9063 151.866H18.5979L39.5 144.364L73.6346 156.628C73.8979 156.726 74.0625 157.019 74.0625 157.313V161.39Z" fill="#284268"/>
</g>
<defs>
<clipPath id="clip0">
<rect width="79" height="167" fill="white"/>
</clipPath>
</defs>
</svg>
