<svg width="103" height="132" viewBox="0 0 103 132" fill="none" xmlns="http://www.w3.org/2000/svg">
<g clip-path="url(#clip0)">
<path d="M1.81603 27.1219L15.3849 13.5094C16.3443 12.5125 17.5778 11.7563 18.9142 11.3094L33.7851 6.1875C31.2152 10.8625 33.3054 16.6375 34.4361 19.1812C34.7445 19.9031 35.5669 20.1438 36.2864 19.8344L41.4261 17.4969L44.6128 21.8281V88.3781C44.6128 88.3781 31.7635 87.3469 20.1477 81.8812C18.9142 81.2625 18.0918 80.025 18.1261 78.5813L19.2225 39.3937C19.2225 38.9813 18.9142 38.6719 18.503 38.6031C18.3659 38.6031 18.1946 38.6375 18.0918 38.7062L13.6716 41.6969C12.8836 42.2125 11.9241 42.075 11.3416 41.3187L1.6447 29.425C1.13073 28.7375 1.19926 27.7406 1.81603 27.1219Z" fill="#EF4460"/>
<path d="M41.3919 17.4953L44.5785 21.8266L47.7651 17.4953C57.0166 5.32656 49.5126 1.30469 49.5126 1.30469H39.7129C39.6786 1.30469 32.1746 5.36094 41.3919 17.4953Z" fill="#EF4460"/>
<path d="M100.841 49.9121H54.6866V55.6871H100.841V49.9121Z" fill="#3A70BF"/>
<path d="M101.732 124.918H82.0984V130.693H101.732V124.918Z" fill="#3A70BF"/>
<path d="M73.4637 124.918H53.83V130.693H73.4637V124.918Z" fill="#3A70BF"/>
<path d="M100.122 124.918L100.841 55.7207H77.7811V77.1363L83.0921 124.952H100.122V124.918Z" fill="#5290DB"/>
<path d="M55.4062 124.918H72.4358L77.7811 77.1363V55.7207H54.7209L55.4062 124.918Z" fill="#5290DB"/>
<path d="M54.6866 55.7219V49.9125H70.3114L70.003 39.4625C70.003 39.05 70.3114 38.7406 70.7225 38.6719C70.8596 38.6719 71.0309 38.7062 71.1337 38.775L75.5539 41.7656C76.342 42.2812 77.3014 42.1437 77.8839 41.3875L87.5123 29.425C88.0605 28.7719 88.0263 27.7406 87.4095 27.0875L73.8406 13.475C72.8469 12.4781 71.6134 11.7219 70.2771 11.275L55.4062 6.1875C57.976 10.8625 55.8859 16.6375 54.7551 19.1812C54.4468 19.9031 53.6244 20.1438 52.9048 19.8344L47.7651 17.4969L44.5785 21.8281V88.3781C48.0735 88 51.5685 87.45 54.995 86.625L54.6866 55.7219Z" fill="#EF4460"/>
<path d="M49.5126 1.30469C49.5126 1.30469 57.0166 5.39531 47.7651 17.4953L52.9049 19.8328C53.6244 20.1422 54.4468 19.8328 54.7552 19.1453C56.3313 15.6047 59.8949 5.56719 49.5126 1.30469Z" fill="#FC657E"/>
<path d="M39.6786 1.30469C39.6786 1.30469 32.1747 5.39531 41.4262 17.4953L36.2864 19.8328C35.5669 20.1422 34.7445 19.8328 34.4361 19.1453C32.7914 15.6047 29.2622 5.56719 39.6786 1.30469Z" fill="#FC657E"/>
<path d="M73.8064 13.5094C73.0183 12.7875 72.1959 12.1688 71.2365 11.6875C69.8316 16.4313 67.2275 27.7063 70.4484 38.775C70.654 38.6719 70.8939 38.7063 71.0994 38.8094L75.5196 41.8C76.3077 42.3156 77.2671 42.1781 77.8496 41.4563L87.478 29.425C88.0262 28.7719 87.992 27.7406 87.3752 27.0875L73.8064 13.5094Z" fill="#FC657E"/>
<path d="M15.3849 13.5094C16.173 12.7875 16.9611 12.1688 17.9548 11.6875C19.3596 16.4313 21.9637 27.7063 18.7429 38.775C18.5373 38.6719 18.2631 38.7063 18.0918 38.8094L13.6717 41.8C12.8836 42.3156 11.9242 42.1781 11.3417 41.4563L1.67898 29.425C1.13075 28.7719 1.16501 27.7406 1.78178 27.0875L15.3849 13.5094Z" fill="#FC657E"/>
<path d="M76.342 49.9121C74.7658 49.9121 73.4637 51.2184 73.3952 52.7996C73.3952 54.3809 74.6973 55.6871 76.2734 55.7215H100.841V49.9121H76.342Z" fill="#3A70BF"/>
<path d="M82.4068 52.868C82.4068 51.2867 81.1048 49.9805 79.5286 49.9805H76.342C74.7658 49.9805 73.4637 51.2867 73.3952 52.868C73.3952 54.4492 74.6973 55.7555 76.2734 55.8242H79.4943C81.1048 55.7211 82.4068 54.4492 82.4068 52.868Z" fill="#29589F"/>
<path d="M94.5366 62.9051C94.5366 66.5145 97.1407 69.6082 100.739 70.1238L100.876 55.7207H94.5023V62.9051H94.5366Z" fill="#29589F"/>
<path d="M61.0256 62.9051C61.0256 66.5145 58.4215 69.6082 54.8237 70.1238L54.6523 55.7207H61.0256V62.9051Z" fill="#29589F"/>
<path d="M72.2645 70.502L77.7468 74.7645V55.7207H72.2645V70.502Z" fill="#3A70BF"/>
<path d="M12.5066 55.893C12.5066 56.7867 11.7871 57.4742 10.9305 57.4742C10.0396 57.4742 9.35428 56.7523 9.35428 55.893C9.35428 54.9992 10.0738 54.2773 10.9305 54.2773C11.7871 54.2773 12.5066 54.9992 12.5066 55.893Z" fill="#F5C84C"/>
<path d="M47.9707 107.971C47.9707 108.865 47.2512 109.552 46.3945 109.552C45.5037 109.552 44.8184 108.83 44.8184 107.971C44.8184 107.077 45.5379 106.355 46.3945 106.355C47.2512 106.355 47.9707 107.077 47.9707 107.971Z" fill="#87D147"/>
<path d="M101.938 29.5961C101.938 30.4898 101.218 31.1773 100.362 31.1773C99.4707 31.1773 98.7854 30.4555 98.7854 29.5961C98.7854 28.7023 99.505 27.9805 100.362 27.9805C101.218 27.9805 101.938 28.7023 101.938 29.5961Z" fill="#FC657E"/>
<path d="M97.1407 15.6047C94.9478 15.1922 93.1317 13.5078 92.7206 11.2047C92.7206 11.1703 92.652 11.1016 92.6178 11.1016C92.5835 11.1016 92.5835 11.1703 92.515 11.2047C92.0695 13.4047 90.322 15.1922 88.0948 15.6047C88.0263 15.6047 87.992 15.6734 87.992 15.7078C87.992 15.7422 88.0263 15.7422 88.0948 15.8109C90.2878 16.2234 92.1038 17.9078 92.515 20.2109C92.515 20.2453 92.5835 20.3141 92.6178 20.3141C92.652 20.3141 92.652 20.2453 92.7206 20.2109C93.166 18.0109 94.9135 16.2234 97.1407 15.8109C97.2092 15.8109 97.2435 15.7422 97.2435 15.7078C97.2435 15.6734 97.2092 15.6047 97.1407 15.6047Z" fill="#F5C84C"/>
<path d="M36.5605 95.9062H35.4641V94.8406C35.4641 94.0156 34.813 93.3281 33.9907 93.3281C33.1683 93.3281 32.483 93.9812 32.483 94.8406V95.9062H31.4208C30.5985 95.9062 29.9132 96.5594 29.9132 97.4187C29.9132 98.2437 30.5642 98.8969 31.4208 98.8969H32.483V99.9969C32.483 100.822 33.1341 101.475 33.9907 101.475C34.813 101.475 35.4641 100.822 35.4641 99.9969V98.8969H36.5605C37.3829 98.8969 38.0339 98.2437 38.0339 97.4187C38.0339 96.5594 37.3829 95.9062 36.5605 95.9062Z" fill="#70D6F9"/>
<path d="M80.7964 124.918V130.693C80.7964 131.415 81.3446 131.999 82.0985 131.999H101.732C102.452 131.999 103.034 131.449 103.034 130.693V124.918C103.034 124.196 102.452 123.612 101.732 123.612H101.424L102.006 70.0898C102.383 36.1961 101.938 73.8367 102.143 49.8773C102.143 49.1555 101.595 48.5711 100.841 48.5711H71.5449L71.3393 40.4242L74.9029 42.7961C76.2049 43.6898 77.9524 43.4148 78.9118 42.1773L88.4717 30.1461C89.4311 28.9773 89.3283 27.2242 88.2661 26.1242L74.6973 12.5805C73.5665 11.4461 72.1959 10.6211 70.6883 10.0367L56.2628 5.08672C54.9265 2.92109 52.8021 1.20234 49.9923 0.0679687C49.8553 -0.000781257 49.684 -0.0351562 49.5126 -0.0351562H39.7129C39.5758 -0.0351562 39.4045 -0.000781257 39.1989 0.0679687C36.2864 1.30547 34.2305 2.95547 32.8942 5.12109L18.4687 10.0711C16.9611 10.5867 15.5905 11.4805 14.4597 12.6148L0.890881 26.193C-0.171328 27.293 -0.274122 29.0461 0.685293 30.2148L10.2452 42.2461C11.2046 43.4836 12.9521 43.7242 14.2542 42.8648L17.8177 40.493L16.7897 78.6148C16.7212 80.5054 17.8177 82.2586 19.4967 83.0836C31.2152 88.618 43.8932 89.6836 44.4072 89.6836H44.51C44.51 89.6836 44.5442 89.6836 44.6128 89.6836C47.6623 89.3742 50.6776 88.893 53.6587 88.2398L54.0356 123.577H53.7272C53.0076 123.577 52.4251 124.162 52.4251 124.884V130.659C52.4251 131.38 53.0076 131.965 53.7272 131.965H73.3609C74.0805 131.965 74.663 131.415 74.663 130.659V124.884C74.663 124.368 74.2861 123.852 73.8406 123.715L77.7126 88.6867L81.6188 123.646C81.1733 123.887 80.7964 124.368 80.7964 124.918ZM100.43 129.421H83.3663V126.224H100.43V129.421ZM95.8044 57.0273H99.5392L99.4365 68.4398C97.2435 67.5117 95.8044 65.2773 95.8044 62.9055V57.0273ZM99.5735 54.4492H83.332C83.7432 53.418 83.7432 52.2836 83.332 51.2523H99.5735V54.4492ZM79.5286 51.1836C80.4195 51.1836 81.1048 51.9055 81.1733 52.7992C81.1733 53.6586 80.4538 54.3805 79.5629 54.4492C79.5629 54.4492 79.5629 54.4492 79.5286 54.4492H76.342C75.4511 54.4492 74.7658 53.7273 74.7658 52.7992C74.7658 51.9055 75.4854 51.1836 76.342 51.1836H79.5286ZM76.479 72.1523L73.5665 69.8836V57.0273H76.479V72.1523ZM55.9887 57.0273H59.7235V62.9055C59.7235 65.3461 58.2844 67.5117 56.0915 68.4398L55.9887 57.0273ZM55.9887 54.4492V51.2523H72.4701C72.0589 52.2836 72.0589 53.418 72.4701 54.4492H55.9887ZM86.4501 28.6336L76.8902 40.6305C76.7189 40.8367 76.479 40.8367 76.2735 40.7336L71.8533 37.743C71.7505 37.6742 71.6477 37.6055 71.5106 37.5367C71.5106 37.5367 71.5106 37.5367 71.4421 37.5367C68.975 28.1523 70.7225 18.5961 72.0246 13.6805C72.333 13.8867 72.6414 14.1617 72.8812 14.4023L86.4501 28.0836C86.6214 28.2211 86.6214 28.4617 86.4501 28.6336ZM53.5559 18.5961C53.5559 18.6648 53.4531 18.6992 53.4188 18.6648L49.7182 16.9805C51.9797 13.7836 54.0699 9.65859 53.5559 5.73984C56.3313 9.28047 55.4747 14.4711 53.5559 18.5961ZM38.2053 5.63672C38.4794 4.43359 39.0961 3.36797 40.0556 2.57734H49.1015C50.2322 3.47109 50.9175 4.74297 51.0546 6.15234C51.6371 11.4461 45.8806 17.6336 44.5785 19.6617C43.2422 17.5305 37.1088 10.9648 38.2053 5.63672ZM39.4388 16.9805L35.7382 18.6648C35.7039 18.6648 35.6354 18.6648 35.6011 18.5961C33.6823 14.4711 32.7571 9.28047 35.6011 5.70547C35.0529 9.65859 37.2116 13.7836 39.4388 16.9805ZM12.8493 40.7336C12.6437 40.8367 12.4039 40.8367 12.2325 40.6305L2.67265 28.6336C2.53559 28.4961 2.53559 28.2211 2.70692 28.0148L16.2415 14.4367C16.5156 14.1617 16.7898 13.9211 17.0981 13.7148C18.4002 18.6648 20.1477 28.2211 17.6806 37.6055C17.5436 37.6398 17.4065 37.7086 17.2695 37.8117L12.8493 40.7336ZM19.3939 78.6836L20.4561 39.4961C20.4561 39.0836 20.3533 38.7055 20.1477 38.3617C22.9231 27.9461 20.8673 17.4617 19.4967 12.4086L31.6264 8.24922C30.7355 11.9617 31.6949 16.1211 33.3054 19.6273C33.9221 20.968 35.5326 21.5523 36.8689 20.968L41.015 19.043L43.345 22.1711V86.9336C39.7472 86.5211 29.7761 84.9742 20.6959 80.6773C19.8393 80.4023 19.3253 79.5429 19.3939 78.6836ZM45.8463 87.0023V22.2742L48.1763 19.1117L52.3223 21.0367C53.6587 21.6555 55.2691 21.0367 55.8859 19.6961C56.023 19.3867 56.1943 19.043 56.2971 18.768C57.3935 16.1898 58.49 12.168 57.5991 8.24922L69.7289 12.4086C68.324 17.4617 66.2681 27.9461 69.0436 38.3617C68.838 38.6711 68.7352 39.0836 68.7352 39.4961L69.0093 48.6398H54.7209C54.0013 48.6398 53.4188 49.2242 53.4188 49.9461L53.5559 70.1586L53.6929 85.6617C50.2665 86.4179 47.4567 86.8305 45.8463 87.0023ZM56.1257 71.1211C59.7578 70.0211 62.2934 66.6867 62.2934 62.8711V56.993H70.9967V70.4336C70.9967 70.8461 71.2023 71.2242 71.5106 71.4648L76.479 75.3492V77.0679L71.3051 123.612H56.7082L56.1257 71.1211ZM72.1617 129.421H55.0978V126.224H72.1617V129.421ZM79.0489 57.0273H93.2345V62.9055C93.2345 66.7211 95.7359 70.0898 99.4022 71.1554L98.8197 123.646H84.2229L79.0146 77.1023V57.0273H79.0489Z" fill="black"/>
</g>
<defs>
<clipPath id="clip0">
<rect width="103" height="132" fill="white"/>
</clipPath>
</defs>
</svg>
